<?xml version="1.0" encoding="UTF-8" standalone="no"?>
<!DOCTYPE svg PUBLIC "-//W3C//DTD SVG 1.1//EN" "http://www.w3.org/Graphics/SVG/1.1/DTD/svg11.dtd">
<svg version="1.1" id="Layer_1" xmlns="http://www.w3.org/2000/svg" xmlns:xlink="http://www.w3.org/1999/xlink" x="0px" y="0px" width="250px" height="530px" viewBox="0 0 250 530" enable-background="new 0 0 250 530" xml:space="preserve">  <image id="image0" width="250" height="530" x="0" y="0"
    xlink:href="data:image/png;base64,iVBORw0KGgoAAAANSUhEUgAAAPoAAAISBAMAAAAXSs/IAAAABGdBTUEAALGPC/xhBQAAACBjSFJN
AAB6JgAAgIQAAPoAAACA6AAAdTAAAOpgAAA6mAAAF3CculE8AAAAG1BMVEUAAAD/////////////
///////9/v39/v3///9EL0fDAAAACHRSTlMADSk0Nxju6l3Zng0AAAABYktHRAH/Ai3eAAAACXBI
WXMAAA7DAAAOwwHHb6hkAAAAB3RJTUUH5AMfEjARpI+vMgAAAUxJREFUeNrt2btxg0AUBVBBBYwU
OMUZqYhUgkPPqAnXIRxs2QZGY0EB3iuPzglIL2//LIcDAAAAAAAAAAAAAAAAAAAAAAAAAAAAAAAA
AAAAAAAAAAAAAAAAAAAAAADwXxy7ZPpwDoY3l+k9lX3sTqVMXSh9GC+llDEUP5RVqOvv6aG2v6dn
im8uJVh8W0qw+Ef6LZqeaPpHeumlS5f+MumBpXaTHljsNumB4k8lWfywSa8/7oZk7b9Hm0i/t9Fu
3w66+oeb4WnS60/3Tfr3Z7T2+t9yu8WmdtPvpnv1Ybed7vUn/D699jr/TLVn+/2V02vP9316n0yv
vr+3yW4/NF/RHfZtzf1IfkxM1+URuCleN7nb/A5j5Jp62eDPbeqidDnU9m3qknhu+qlrc/fzc91N
7N/EKVb3Ilc3AAAAAAAAAAAAAAAAAAAAwJ/5AS2yF3QK9uRnAAAAJXRFWHRkYXRlOmNyZWF0ZQAy
MDIwLTAzLTMxVDE4OjQ4OjE3KzAzOjAwLYK63QAAACV0RVh0ZGF0ZTptb2RpZnkAMjAyMC0wMy0z
MVQxODo0ODoxNyswMzowMFzfAmEAAAAASUVORK5CYII=" />
</svg>
